dump.vcd
$date
	Fri Mar  8 00:06:13 2024
$end
$version
	QuestaSim Version 2023.3
$end
$timescale
	1ns
$end

$scope module uvm_root $end
$upscope $end

$scope module top_tb $end
$var reg 1 ! wclk $end
$var reg 1 " rclk $end
$var reg 1 # wrst_n $end
$var reg 1 $ rrst_n $end
$var reg 1 % rinc $end

$scope module async_fifo $end
$var parameter 32 & DSIZE $end
$var parameter 32 ' ASIZE $end
$var wire 1 ( rdata [7] $end
$var wire 1 ) rdata [6] $end
$var wire 1 * rdata [5] $end
$var wire 1 + rdata [4] $end
$var wire 1 , rdata [3] $end
$var wire 1 - rdata [2] $end
$var wire 1 . rdata [1] $end
$var wire 1 / rdata [0] $end
$var wire 1 0 wfull $end
$var wire 1 1 rempty $end
$var wire 1 2 wdata [7] $end
$var wire 1 3 wdata [6] $end
$var wire 1 4 wdata [5] $end
$var wire 1 5 wdata [4] $end
$var wire 1 6 wdata [3] $end
$var wire 1 7 wdata [2] $end
$var wire 1 8 wdata [1] $end
$var wire 1 9 wdata [0] $end
$var wire 1 : winc $end
$var wire 1 ; wclk $end
$var wire 1 < wrst_n $end
$var wire 1 = rinc $end
$var wire 1 > rclk $end
$var wire 1 ? rrst_n $end
$var wire 1 @ waddr [8] $end
$var wire 1 A waddr [7] $end
$var wire 1 B waddr [6] $end
$var wire 1 C waddr [5] $end
$var wire 1 D waddr [4] $end
$var wire 1 E waddr [3] $end
$var wire 1 F waddr [2] $end
$var wire 1 G waddr [1] $end
$var wire 1 H waddr [0] $end
$var wire 1 I raddr [8] $end
$var wire 1 J raddr [7] $end
$var wire 1 K raddr [6] $end
$var wire 1 L raddr [5] $end
$var wire 1 M raddr [4] $end
$var wire 1 N raddr [3] $end
$var wire 1 O raddr [2] $end
$var wire 1 P raddr [1] $end
$var wire 1 Q raddr [0] $end
$var wire 1 R wptr [9] $end
$var wire 1 S wptr [8] $end
$var wire 1 T wptr [7] $end
$var wire 1 U wptr [6] $end
$var wire 1 V wptr [5] $end
$var wire 1 W wptr [4] $end
$var wire 1 X wptr [3] $end
$var wire 1 Y wptr [2] $end
$var wire 1 Z wptr [1] $end
$var wire 1 [ wptr [0] $end
$var wire 1 \ rptr [9] $end
$var wire 1 ] rptr [8] $end
$var wire 1 ^ rptr [7] $end
$var wire 1 _ rptr [6] $end
$var wire 1 ` rptr [5] $end
$var wire 1 a rptr [4] $end
$var wire 1 b rptr [3] $end
$var wire 1 c rptr [2] $end
$var wire 1 d rptr [1] $end
$var wire 1 e rptr [0] $end
$var wire 1 f wq2_rptr [9] $end
$var wire 1 g wq2_rptr [8] $end
$var wire 1 h wq2_rptr [7] $end
$var wire 1 i wq2_rptr [6] $end
$var wire 1 j wq2_rptr [5] $end
$var wire 1 k wq2_rptr [4] $end
$var wire 1 l wq2_rptr [3] $end
$var wire 1 m wq2_rptr [2] $end
$var wire 1 n wq2_rptr [1] $end
$var wire 1 o wq2_rptr [0] $end
$var wire 1 p rq2_wptr [9] $end
$var wire 1 q rq2_wptr [8] $end
$var wire 1 r rq2_wptr [7] $end
$var wire 1 s rq2_wptr [6] $end
$var wire 1 t rq2_wptr [5] $end
$var wire 1 u rq2_wptr [4] $end
$var wire 1 v rq2_wptr [3] $end
$var wire 1 w rq2_wptr [2] $end
$var wire 1 x rq2_wptr [1] $end
$var wire 1 y rq2_wptr [0] $end

$scope module sync_r2w $end
$var parameter 32 z ADDRSIZE $end
$var reg 10 { wq2_rptr [9:0] $end
$var wire 1 \ rptr [9] $end
$var wire 1 ] rptr [8] $end
$var wire 1 ^ rptr [7] $end
$var wire 1 _ rptr [6] $end
$var wire 1 ` rptr [5] $end
$var wire 1 a rptr [4] $end
$var wire 1 b rptr [3] $end
$var wire 1 c rptr [2] $end
$var wire 1 d rptr [1] $end
$var wire 1 e rptr [0] $end
$var wire 1 ; wclk $end
$var wire 1 < wrst_n $end
$var reg 10 | wq1_rptr [9:0] $end
$upscope $end

$scope module sync_w2r $end
$var parameter 32 } ADDRSIZE $end
$var reg 10 ~ rq2_wptr [9:0] $end
$var wire 1 R wptr [9] $end
$var wire 1 S wptr [8] $end
$var wire 1 T wptr [7] $end
$var wire 1 U wptr [6] $end
$var wire 1 V wptr [5] $end
$var wire 1 W wptr [4] $end
$var wire 1 X wptr [3] $end
$var wire 1 Y wptr [2] $end
$var wire 1 Z wptr [1] $end
$var wire 1 [ wptr [0] $end
$var wire 1 > rclk $end
$var wire 1 ? rrst_n $end
$var reg 10 !! rq1_wptr [9:0] $end
$upscope $end

$scope module fifomem $end
$var parameter 32 "! DATASIZE $end
$var parameter 32 #! ADDRSIZE $end
$var parameter 32 $! DEPTH $end
$var wire 1 ( rdata [7] $end
$var wire 1 ) rdata [6] $end
$var wire 1 * rdata [5] $end
$var wire 1 + rdata [4] $end
$var wire 1 , rdata [3] $end
$var wire 1 - rdata [2] $end
$var wire 1 . rdata [1] $end
$var wire 1 / rdata [0] $end
$var wire 1 2 wdata [7] $end
$var wire 1 3 wdata [6] $end
$var wire 1 4 wdata [5] $end
$var wire 1 5 wdata [4] $end
$var wire 1 6 wdata [3] $end
$var wire 1 7 wdata [2] $end
$var wire 1 8 wdata [1] $end
$var wire 1 9 wdata [0] $end
$var wire 1 @ waddr [8] $end
$var wire 1 A waddr [7] $end
$var wire 1 B waddr [6] $end
$var wire 1 C waddr [5] $end
$var wire 1 D waddr [4] $end
$var wire 1 E waddr [3] $end
$var wire 1 F waddr [2] $end
$var wire 1 G waddr [1] $end
$var wire 1 H waddr [0] $end
$var wire 1 I raddr [8] $end
$var wire 1 J raddr [7] $end
$var wire 1 K raddr [6] $end
$var wire 1 L raddr [5] $end
$var wire 1 M raddr [4] $end
$var wire 1 N raddr [3] $end
$var wire 1 O raddr [2] $end
$var wire 1 P raddr [1] $end
$var wire 1 Q raddr [0] $end
$var wire 1 : wclken $end
$var wire 1 0 wfull $end
$var wire 1 ; wclk $end
$upscope $end

$scope module rptr_empty $end
$var parameter 32 %! ADDRSIZE $end
$var reg 1 &! rempty $end
$var wire 1 I raddr [8] $end
$var wire 1 J raddr [7] $end
$var wire 1 K raddr [6] $end
$var wire 1 L raddr [5] $end
$var wire 1 M raddr [4] $end
$var wire 1 N raddr [3] $end
$var wire 1 O raddr [2] $end
$var wire 1 P raddr [1] $end
$var wire 1 Q raddr [0] $end
$var reg 10 '! rptr [9:0] $end
$var wire 1 p rq2_wptr [9] $end
$var wire 1 q rq2_wptr [8] $end
$var wire 1 r rq2_wptr [7] $end
$var wire 1 s rq2_wptr [6] $end
$var wire 1 t rq2_wptr [5] $end
$var wire 1 u rq2_wptr [4] $end
$var wire 1 v rq2_wptr [3] $end
$var wire 1 w rq2_wptr [2] $end
$var wire 1 x rq2_wptr [1] $end
$var wire 1 y rq2_wptr [0] $end
$var wire 1 = rinc $end
$var wire 1 > rclk $end
$var wire 1 ? rrst_n $end
$var reg 10 (! rbin [9:0] $end
$var wire 1 )! rgraynext [9] $end
$var wire 1 *! rgraynext [8] $end
$var wire 1 +! rgraynext [7] $end
$var wire 1 ,! rgraynext [6] $end
$var wire 1 -! rgraynext [5] $end
$var wire 1 .! rgraynext [4] $end
$var wire 1 /! rgraynext [3] $end
$var wire 1 0! rgraynext [2] $end
$var wire 1 1! rgraynext [1] $end
$var wire 1 2! rgraynext [0] $end
$var wire 1 3! rbinnext [9] $end
$var wire 1 4! rbinnext [8] $end
$var wire 1 5! rbinnext [7] $end
$var wire 1 6! rbinnext [6] $end
$var wire 1 7! rbinnext [5] $end
$var wire 1 8! rbinnext [4] $end
$var wire 1 9! rbinnext [3] $end
$var wire 1 :! rbinnext [2] $end
$var wire 1 ;! rbinnext [1] $end
$var wire 1 <! rbinnext [0] $end
$var wire 1 =! rempty_val $end
$upscope $end

$scope module wptr_full $end
$var parameter 32 >! ADDRSIZE $end
$var reg 1 ?! wfull $end
$var wire 1 @ waddr [8] $end
$var wire 1 A waddr [7] $end
$var wire 1 B waddr [6] $end
$var wire 1 C waddr [5] $end
$var wire 1 D waddr [4] $end
$var wire 1 E waddr [3] $end
$var wire 1 F waddr [2] $end
$var wire 1 G waddr [1] $end
$var wire 1 H waddr [0] $end
$var reg 10 @! wptr [9:0] $end
$var wire 1 f wq2_rptr [9] $end
$var wire 1 g wq2_rptr [8] $end
$var wire 1 h wq2_rptr [7] $end
$var wire 1 i wq2_rptr [6] $end
$var wire 1 j wq2_rptr [5] $end
$var wire 1 k wq2_rptr [4] $end
$var wire 1 l wq2_rptr [3] $end
$var wire 1 m wq2_rptr [2] $end
$var wire 1 n wq2_rptr [1] $end
$var wire 1 o wq2_rptr [0] $end
$var wire 1 : winc $end
$var wire 1 ; wclk $end
$var wire 1 < wrst_n $end
$var reg 10 A! wbin [9:0] $end
$var wire 1 B! wgraynext [9] $end
$var wire 1 C! wgraynext [8] $end
$var wire 1 D! wgraynext [7] $end
$var wire 1 E! wgraynext [6] $end
$var wire 1 F! wgraynext [5] $end
$var wire 1 G! wgraynext [4] $end
$var wire 1 H! wgraynext [3] $end
$var wire 1 I! wgraynext [2] $end
$var wire 1 J! wgraynext [1] $end
$var wire 1 K! wgraynext [0] $end
$var wire 1 L! wbinnext [9] $end
$var wire 1 M! wbinnext [8] $end
$var wire 1 N! wbinnext [7] $end
$var wire 1 O! wbinnext [6] $end
$var wire 1 P! wbinnext [5] $end
$var wire 1 Q! wbinnext [4] $end
$var wire 1 R! wbinnext [3] $end
$var wire 1 S! wbinnext [2] $end
$var wire 1 T! wbinnext [1] $end
$var wire 1 U! wbinnext [0] $end
$var wire 1 V! wfull_val $end
$upscope $end
$upscope $end
$upscope $end

$scope begin uvm_pkg $end
$var parameter 32 W! UVM_HDL_MAX_WIDTH $end
$var parameter 32 X! UVM_STREAMBITS $end
$var parameter 32 Y! UVM_RADIX $end
$var parameter 32 Z! UVM_MACRO_NUMFLAGS $end
$var parameter 32 [! UVM_DEFAULT $end
$var parameter 32 \! UVM_ALL_ON $end
$var parameter 32 ]! UVM_FLAGS_ON $end
$var parameter 32 ^! UVM_FLAGS_OFF $end
$var parameter 32 _! UVM_COPY $end
$var parameter 32 `! UVM_NOCOPY $end
$var parameter 32 a! UVM_COMPARE $end
$var parameter 32 b! UVM_NOCOMPARE $end
$var parameter 32 c! UVM_PRINT $end
$var parameter 32 d! UVM_NOPRINT $end
$var parameter 32 e! UVM_RECORD $end
$var parameter 32 f! UVM_NORECORD $end
$var parameter 32 g! UVM_PACK $end
$var parameter 32 h! UVM_NOPACK $end
$var parameter 32 i! UVM_PHYSICAL $end
$var parameter 32 j! UVM_ABSTRACT $end
$var parameter 32 k! UVM_READONLY $end
$var parameter 32 l! UVM_NODEFPRINT $end
$var parameter 32 m! UVM_MACRO_EXTRAS $end
$var parameter 32 n! UVM_FLAGS $end
$var parameter 32 o! UVM_UNPACK $end
$var parameter 32 p! UVM_CHECK_FIELDS $end
$var parameter 32 q! UVM_END_DATA_EXTRA $end
$var parameter 32 r! UVM_START_FUNCS $end
$var parameter 32 s! UVM_SET $end
$var parameter 32 t! UVM_SETINT $end
$var parameter 32 u! UVM_SETOBJ $end
$var parameter 32 v! UVM_SETSTR $end
$var parameter 32 w! UVM_END_FUNCS $end
$var parameter 32 x! UVM_STR_CRC_POLYNOMIAL $end
$var parameter 32 y! UVM_STDOUT $end
$var parameter 32 z! UVM_LINE_WIDTH $end
$var parameter 32 {! UVM_NUM_LINES $end
$var parameter 32 |! UVM_SMALL_STRING $end
$var parameter 32 }! UVM_LARGE_STRING $end
$var reg 1 ~! uvm_start_uvm_declarations $end
$var integer 32 !" uvm_global_random_seed $end
$var integer 32 "" UVM_UNBOUNDED_CONNECTIONS $end

$scope function uvm_hdl_check_path $end
$var integer 32 #" uvm_hdl_check_path $end
$upscope $end

$scope function uvm_hdl_deposit $end
$var integer 32 $" uvm_hdl_deposit $end
$var reg 1024 %" value [1023:0] $end
$upscope $end

$scope function uvm_hdl_force $end
$var integer 32 &" uvm_hdl_force $end
$var reg 1024 '" value [1023:0] $end
$upscope $end

$scope task uvm_hdl_force_time $end
$var reg 1024 (" value [1023:0] $end
$var time 64 )" force_time $end
$upscope $end

$scope function uvm_hdl_release_and_read $end
$var integer 32 *" uvm_hdl_release_and_read $end
$var reg 1024 +" value [1023:0] $end
$upscope $end

$scope function uvm_hdl_release $end
$var integer 32 ," uvm_hdl_release $end
$upscope $end

$scope function uvm_hdl_read $end
$var integer 32 -" uvm_hdl_read $end
$var reg 1024 ." value [1023:0] $end
$upscope $end

$scope function uvm_dpi_get_next_arg_c $end
$upscope $end

$scope function uvm_dpi_get_tool_name_c $end
$upscope $end

$scope function uvm_dpi_get_tool_version_c $end
$upscope $end

$scope function uvm_dpi_get_next_arg $end
$upscope $end

$scope function uvm_dpi_get_tool_name $end
$upscope $end

$scope function uvm_dpi_get_tool_version $end
$upscope $end

$scope function uvm_dpi_regcomp $end
$upscope $end

$scope function uvm_dpi_regexec $end
$var integer 32 /" uvm_dpi_regexec $end
$upscope $end

$scope function uvm_dpi_regfree $end
$upscope $end

$scope function uvm_re_match $end
$var integer 32 0" uvm_re_match $end
$upscope $end

$scope function uvm_dump_re_cache $end
$upscope $end

$scope function uvm_glob_to_re $end
$upscope $end

$scope function uvm_revision_string $end
$upscope $end

$scope function uvm_radix_to_string $end
$var integer 32 1" radix $end
$upscope $end

$scope function uvm_instance_scope $end
$var reg 8 2" c [7:0] $end
$var integer 32 3" pos $end
$upscope $end

$scope function uvm_oneway_hash $end
$var integer 32 4" uvm_oneway_hash $end
$var integer 32 5" seed $end
$var reg 1 6" msb $end
$var reg 8 7" current_byte [7:0] $end
$var reg 32 8" crc1 [31:0] $end
$upscope $end

$scope function uvm_create_random_seed $end
$var integer 32 9" uvm_create_random_seed $end
$upscope $end

$scope function uvm_object_value_str $end
$upscope $end

$scope function uvm_leaf_scope $end
$var reg 8 :" scope_separator [7:0] $end
$var reg 8 ;" bracket_match [7:0] $end
$var integer 32 <" pos $end
$var integer 32 =" bmatches $end
$upscope $end

$scope function uvm_vector_to_string $end
$var reg 4096 >" value [4095:0] $end
$var integer 32 ?" size $end
$var integer 32 @" radix $end
$upscope $end

$scope function uvm_get_array_index_int $end
$var integer 32 A" uvm_get_array_index_int $end
$var reg 1 B" is_wildcard $end
$var integer 32 C" i $end
$upscope $end

$scope function uvm_get_array_index_string $end
$var reg 1 D" is_wildcard $end
$var integer 32 E" i $end
$upscope $end

$scope function uvm_is_array $end
$var reg 1 F" uvm_is_array $end
$upscope $end

$scope function uvm_has_wildcard $end
$upscope $end

$scope task run_test $end
$upscope $end

$scope function global_stop_request $end
$upscope $end

$scope function set_global_timeout $end
$var time 64 G" timeout $end
$var reg 1 H" overridable $end
$upscope $end

$scope function set_global_stop_timeout $end
$var time 64 I" timeout $end
$upscope $end

$scope function uvm_report_enabled $end
$var reg 1 J" uvm_report_enabled $end
$var integer 32 K" verbosity $end
$var reg 2 L" severity [1:0] $end
$upscope $end

$scope function uvm_report $end
$var reg 2 M" severity [1:0] $end
$var integer 32 N" verbosity $end
$var integer 32 O" line $end
$upscope $end

$scope function uvm_report_info $end
$var integer 32 P" verbosity $end
$var integer 32 Q" line $end
$upscope $end

$scope function uvm_report_warning $end
$var integer 32 R" verbosity $end
$var integer 32 S" line $end
$upscope $end

$scope function uvm_report_error $end
$var integer 32 T" verbosity $end
$var integer 32 U" line $end
$upscope $end

$scope function uvm_report_fatal $end
$var integer 32 V" verbosity $end
$var integer 32 W" line $end
$upscope $end

$scope function uvm_string_to_severity $end
$var reg 1 X" uvm_string_to_severity $end
$var reg 2 Y" sev [1:0] $end
$upscope $end

$scope function uvm_string_to_action $end
$upscope $end

$scope function set_config_int $end
$var reg 4096 Z" value [4095:0] $end
$upscope $end

$scope function set_config_object $end
$var reg 1 [" clone $end
$upscope $end

$scope function set_config_string $end
$upscope $end

$scope function uvm_is_match $end
$var reg 1 \" uvm_is_match $end
$upscope $end

$scope function uvm_string_to_bits $end
$var reg 115200 ]" uvm_string_to_bits [115199:0] $end
$upscope $end

$scope function uvm_bits_to_string $end
$var reg 115200 ^" str [115199:0] $end
$upscope $end

$scope task uvm_wait_for_nba_region $end
$var integer 32 _" nba $end
$var integer 32 `" next_nba $end
$upscope $end

$scope function uvm_split_string $end
$upscope $end

$scope function uvm_hdl_concat2string $end
$upscope $end
$upscope $end

$scope begin my_pkg $end
$upscope $end

$scope begin top_tb_sv_unit $end
$upscope $end

$scope begin questa_uvm_pkg $end
$upscope $end

$scope begin std $end
$upscope $end
$enddefinitions $end
#0
$dumpvars
0B"
0D"
0F"
0X"
b0 Y"
bx ]"
bx ^"
bx %"
bx '"
bx ("
bx +"
bx ."
1~!
06"
b1110011 7"
b111100101100001101100101101110 8"
b1 >"
0H"
0J"
b0 L"
b0 M"
bx Z"
0["
0\"
0!
0"
0#
0$
x%
b0 {
b0 |
b0 ~
b0 !!
1&!
b0 '!
b0 (!
0?!
b0 @!
b0 A!
b10000000000 W!
b1000000000000 X!
b1111000000000000000000000000 Y!
b10001 Z!
b10101010101 [!
b101010101 \!
b101010101 ]!
b0 ^!
b1 _!
b10 `!
b100 a!
b1000 b!
b10000 c!
b100000 d!
b1000000 e!
b10000000 f!
b100000000 g!
b1000000000 h!
b10000000000000 i!
b100000000000000 j!
b1000000000000000 k!
b10000000000000000 l!
b100000000000000000 m!
b100000000000000001 n!
b100000000000000010 o!
b100000000000000011 p!
b100000000000000100 q!
b100000000000000101 r!
b100000000000000110 s!
b100000000000000110 t!
b100000000000000111 u!
b100000000000001000 v!
b100000000000001000 w!
b100110000010001110110110110 x!
b1 y!
b1111000 z!
b1111000 {!
b1110111111 |!
b11100000111111111 }!
b1000 &
b1001 '
b1001 z
b1001 }
b1000 "!
b1001 #!
b1000000000 $!
b1001 %!
b1001 >!
b0 1"
b101110 :"
b0 ;"
b10100 <"
b11111111111111111111111111111111 ="
b0 A"
b0 C"
b0 E"
b0 #"
b0 $"
b0 &"
b0 *"
b0 ,"
b0 -"
b1 /"
b1 0"
b10011101110100111100000000101000 !"
b101110 2"
b111 3"
b101110111110100000111111101011 4"
b10011101110100111100000000101000 5"
b101110111110100000111111101100 9"
b100000 ?"
b10000000000000000000000000 @"
b111110100 K"
b0 N"
b0 O"
b11001000 P"
b100010110 Q"
b0 R"
b0 S"
b0 T"
b0 U"
b0 V"
b0 W"
b10111 _"
b10111 `"
b11111111111111111111111111111111 ""
bx )"
bx G"
bx I"
0?
0>
0=
0<
0;
0:
09
08
07
06
05
04
03
02
x/
x.
x-
x,
x+
x*
x)
x(
00
11
0H
0G
0F
0E
0D
0C
0B
0A
0@
0Q
0P
0O
0N
0M
0L
0K
0J
0I
0[
0Z
0Y
0X
0W
0V
0U
0T
0S
0R
0e
0d
0c
0b
0a
0`
0_
0^
0]
0\
0o
0n
0m
0l
0k
0j
0i
0h
0g
0f
0y
0x
0w
0v
0u
0t
0s
0r
0q
0p
02!
01!
00!
0/!
0.!
0-!
0,!
0+!
0*!
0)!
0<!
0;!
0:!
09!
08!
07!
06!
05!
04!
03!
1=!
0K!
0J!
0I!
0H!
0G!
0F!
0E!
0D!
0C!
0B!
0U!
0T!
0S!
0R!
0Q!
0P!
0O!
0N!
0M!
0L!
0V!
$end
#3
1!
1;
#4
1"
1>
#6
0!
0;
#8
0"
0>
#9
1!
1;
#12
1"
0!
1>
0;
#15
1!
1;
#16
0"
0>
#18
0!
0;
#20
1"
1>
#21
1!
1;
#24
0"
0!
0>
0;
#27
1!
1;
#28
1"
1>
#30
0!
0;
#32
0"
0>
#33
1!
1;
#36
1"
0!
1>
0;
#39
1!
1;
#40
0"
0>
#42
0!
0;
#44
1"
1>
#45
1!
1;
#48
0"
0!
0>
0;
#51
1!
1;
#52
1"
1>
#54
0!
0;
#56
0"
0>
#57
1!
1;
#60
1"
0!
1>
0;
#63
1!
1;
#64
0"
0>
#66
0!
0;
#68
1"
1>
#69
1!
1;
#72
0"
0!
0>
0;
#75
1!
1;
#76
1"
1>
#78
0!
0;
#80
0"
0>
#81
1!
1;
#84
1"
0!
1>
0;
#87
1!
1;
#88
0"
0>
#90
0!
0;
#92
1"
1>
#93
1!
1;
#96
0"
0!
0>
0;
#99
1!
1;
#100
1#
1$
1"
1<
1?
1>
b11000 `"
b11000 _"
#102
0!
0;
#104
0"
0>
#105
1!
1;
b11001 `"
b11001 _"
#108
1"
0!
1>
0;
#111
1!
1;
1:
18
16
13
12
1U!
1K!
#112
0"
0>
#114
0!
0;
#116
1"
1>
#117
1!
1;
b11010 `"
b10100111100111011011011101101111 9"
b10100111100111011011011101110010 9"
b101110111110100000111111101110 9"
b101110111110100000111111110001 9"
b1 @!
b1 A!
b11010 _"
0/
1.
0-
1,
0+
0*
1)
1(
1H
0U!
1T!
1[
0:
1J!
1U!
0T!
0J!
#120
0"
0!
0>
0;
#123
1!
1;
b0 ="
b10000 <"
b1111 <"
b1110 <"
b1101 <"
b1100 <"
b1011 <"
b1010 <"
b1001 <"
b1000 <"
b111 <"
b110 <"
b101 <"
b100 <"
b11 <"
b10 <"
b1 <"
b0 <"
b11001010 >"
b1000 ?"
b111000000000000000000000000 @"
b10101 <"
b10100 <"
b10011 <"
b10010 <"
b10001 <"
b11111111111111111111111111111111 ="
1:
19
08
06
03
0U!
1T!
1J!
#124
1"
1>
b1 !!
#126
0!
0;
#128
0"
0>
#129
1!
1;
b11011 `"
b10100111100111011011011101110110 9"
b10100111100111011011011101111011 9"
b101110111110100000111111110101 9"
b101110111110100000111111111010 9"
b11 @!
b10 A!
b11011 _"
0H
1G
1U!
1Z
0:
0K!
0U!
1K!
#132
1"
0!
1>
0;
b11 !!
b1 ~
1y
0=!
#135
1!
1;
b0 ="
b10000 <"
b1111 <"
b1110 <"
b1101 <"
b1100 <"
b1011 <"
b1010 <"
b1001 <"
b1000 <"
b111 <"
b110 <"
b101 <"
b100 <"
b11 <"
b10 <"
b1 <"
b0 <"
b10000001 >"
b10101 <"
b10100 <"
b10011 <"
b10010 <"
b10001 <"
b11111111111111111111111111111111 ="
1:
09
18
17
16
14
02
1U!
0K!
#136
0"
0>
#138
0!
0;
#140
1"
1>
0&!
b11 ~
01
1x
#141
1!
1;
b11100 `"
b10100111100111011011011110000001 9"
b10100111100111011011011110001000 9"
b101110111110100001000000000000 9"
b101110111110100001000000000111 9"
b10 @!
b11 A!
b11100 _"
1H
0U!
0T!
1S!
0[
0:
1I!
1U!
1T!
0S!
0I!
#144
0"
0!
0>
0;
#147
1!
1;
b0 ="
b10000 <"
b1111 <"
b1110 <"
b1101 <"
b1100 <"
b1011 <"
b1010 <"
b1001 <"
b1000 <"
b111 <"
b110 <"
b101 <"
b100 <"
b11 <"
b10 <"
b1 <"
b0 <"
b101110 >"
b10101 <"
b10100 <"
b10011 <"
b10010 <"
b10001 <"
b11111111111111111111111111111111 ="
1:
07
06
0U!
0T!
1S!
1I!
#148
1"
1>
b10 !!
#150
0!
0;
#152
0"
0>
#153
1!
1;
b11101 `"
b10100111100111011011011110010000 9"
b10100111100111011011011110011001 9"
b101110111110100001000000001111 9"
b101110111110100001000000011000 9"
b110 @!
b100 A!
b11101 _"
0H
0G
1F
1U!
1Y
0:
1K!
0U!
0K!
#156
1"
0!
1>
0;
b110 !!
b10 ~
0y
#159
1!
1;
b0 ="
b10000 <"
b1111 <"
b1110 <"
b1101 <"
b1100 <"
b1011 <"
b1010 <"
b1001 <"
b1000 <"
b111 <"
b110 <"
b101 <"
b100 <"
b11 <"
b10 <"
b1 <"
b0 <"
b100010 >"
b10101 <"
b10100 <"
b10011 <"
b10010 <"
b10001 <"
b11111111111111111111111111111111 ="
1:
19
13
1U!
1K!
#160
0"
0>
#162
0!
0;
#164
1"
1>
b110 ~
1w
#165
1!
1;
b11110 `"
b10100111100111011011011110100011 9"
b10100111100111011011011110101110 9"
b101110111110100001000000100010 9"
b101110111110100001000000101101 9"
b111 @!
b101 A!
b11110 _"
1H
0U!
1T!
1[
0:
0J!
1U!
0T!
1J!
#168
0"
0!
0>
0;
#171
1!
1;
b0 ="
b10000 <"
b1111 <"
b1110 <"
b1101 <"
b1100 <"
b1011 <"
b1010 <"
b1001 <"
b1000 <"
b111 <"
b110 <"
b101 <"
b100 <"
b11 <"
b10 <"
b1 <"
b0 <"
b1100011 >"
b10101 <"
b10100 <"
b10011 <"
b10010 <"
b10001 <"
b11111111111111111111111111111111 ="
1:
17
04
12
0U!
1T!
0J!
#172
1"
1>
b111 !!
#174
0!
0;
#176
0"
0>
#177
1!
1;
b11111 `"
b10100111100111011011011110111010 9"
b10100111100111011011011111000111 9"
b101110111110100001000000111001 9"
b101110111110100001000001000110 9"
b101 @!
b110 A!
b11111 _"
0H
1G
1U!
0Z
0:
0K!
0U!
1K!
#180
1"
0!
1>
0;
b101 !!
b111 ~
1y
#183
1!
1;
b0 ="
b10000 <"
b1111 <"
b1110 <"
b1101 <"
b1100 <"
b1011 <"
b1010 <"
b1001 <"
b1000 <"
b111 <"
b110 <"
b101 <"
b100 <"
b11 <"
b10 <"
b1 <"
b0 <"
b11000111 >"
b10101 <"
b10100 <"
b10011 <"
b10010 <"
b10001 <"
b11111111111111111111111111111111 ="
1:
15
14
03
02
1U!
0K!
#184
0"
0>
#186
0!
0;
#188
1"
1>
b101 ~
0x
#189
1!
1;
b100000 `"
b10100111100111011011011111010101 9"
b10100111100111011011011111100100 9"
b101110111110100001000001010100 9"
b101110111110100001000001100011 9"
b100 @!
b111 A!
b100000 _"
1H
0U!
0T!
0S!
1R!
0[
0:
1H!
1U!
1T!
1S!
0R!
0H!
#192
0"
0!
0>
0;
#195
1!
1;
b0 ="
b10000 <"
b1111 <"
b1110 <"
b1101 <"
b1100 <"
b1011 <"
b1010 <"
b1001 <"
b1000 <"
b111 <"
b110 <"
b101 <"
b100 <"
b11 <"
b10 <"
b1 <"
b0 <"
b110111 >"
b10101 <"
b10100 <"
b10011 <"
b10010 <"
b10001 <"
b11111111111111111111111111111111 ="
1:
09
05
04
13
0U!
0T!
0S!
1R!
1H!
#196
1"
1>
b100 !!
#198
0!
0;
#200
0"
0>
#201
1!
1;
b100001 `"
b10100111100111011011011111110100 9"
b10100111100111011011100000000101 9"
b101110111110100001000001110011 9"
b101110111110100001000010000100 9"
b1100 @!
b1000 A!
b100001 _"
0H
0G
0F
1E
1U!
1X
0:
1K!
0U!
0K!
#204
1"
0!
1>
0;
b1100 !!
b100 ~
0y
#207
1!
1;
b0 ="
b10000 <"
b1111 <"
b1110 <"
b1101 <"
b1100 <"
b1011 <"
b1010 <"
b1001 <"
b1000 <"
b111 <"
b110 <"
b101 <"
b100 <"
b11 <"
b10 <"
b1 <"
b0 <"
b1000110 >"
b10101 <"
b10100 <"
b10011 <"
b10010 <"
b10001 <"
b11111111111111111111111111111111 ="
1:
07
16
03
1U!
1K!
#208
0"
0>
#210
0!
0;
#212
1"
1>
b1100 ~
1v
#213
1!
1;
b100010 `"
b10100111100111011011100000010111 9"
b10100111100111011011100000101010 9"
b101110111110100001000010010110 9"
b101110111110100001000010101001 9"
b1101 @!
b1001 A!
b100010 _"
1H
0U!
1T!
1[
0:
1J!
1U!
0T!
0J!
#216
0"
0!
0>
0;
#219
1!
1;
b0 ="
b10000 <"
b1111 <"
b1110 <"
b1101 <"
b1100 <"
b1011 <"
b1010 <"
b1001 <"
b1000 <"
b111 <"
b110 <"
b101 <"
b100 <"
b11 <"
b10 <"
b1 <"
b0 <"
b1010 >"
b10101 <"
b10100 <"
b10011 <"
b10010 <"
b10001 <"
b11111111111111111111111111111111 ="
1:
19
17
06
15
14
0U!
1T!
1J!
#220
1"
1>
b1101 !!
#222
0!
0;
#224
0"
0>
#225
1!
1;
b100011 `"
b10100111100111011011100000111110 9"
b10100111100111011011100001010011 9"
b101110111110100001000010111101 9"
b101110111110100001000011010010 9"
b1111 @!
b1010 A!
b100011 _"
0H
1G
1U!
1Z
0:
0K!
0U!
1K!
#228
1"
0!
1>
0;
b1111 !!
b1101 ~
1y
#231
1!
1;
b0 ="
b10000 <"
b1111 <"
b1110 <"
b1101 <"
b1100 <"
b1011 <"
b1010 <"
b1001 <"
b1000 <"
b111 <"
b110 <"
b101 <"
b100 <"
b11 <"
b10 <"
b1 <"
b0 <"
b110111 >"
b10101 <"
b10100 <"
b10011 <"
b10010 <"
b10001 <"
b11111111111111111111111111111111 ="
1:
08
05
12
1U!
0K!
#232
0"
0>
#234
0!
0;
#236
1"
1>
b1111 ~
1x
#237
1!
1;
b100100 `"
b10100111100111011011100001101001 9"
b10100111100111011011100010000000 9"
b101110111110100001000011101000 9"
b101110111110100001000011111111 9"
b1110 @!
b1011 A!
b100100 _"
1H
0U!
0T!
1S!
0[
0:
0I!
1U!
1T!
0S!
1I!
#240
0"
0!
0>
0;
#243
1!
1;
b0 ="
b10000 <"
b1111 <"
b1110 <"
b1101 <"
b1100 <"
b1011 <"
b1010 <"
b1001 <"
b1000 <"
b111 <"
b110 <"
b101 <"
b100 <"
b11 <"
b10 <"
b1 <"
b0 <"
b10100101 >"
b10101 <"
b10100 <"
b10011 <"
b10010 <"
b10001 <"
b11111111111111111111111111111111 ="
1:
09
18
16
15
04
0U!
0T!
1S!
0I!
#244
1"
1>
b1110 !!
#246
0!
0;
#248
0"
0>
#249
1!
1;
b100101 `"
b10100111100111011011100010011000 9"
b10100111100111011011100010110001 9"
b101110111110100001000100010111 9"
b101110111110100001000100110000 9"
b1010 @!
b1100 A!
b100101 _"
0H
0G
1F
1U!
0Y
0:
1K!
0U!
0K!
#252
1"
0!
1>
0;
b1010 !!
b1110 ~
0y
